<svg xmlns="http://www.w3.org/2000/svg" xmlns:xlink="http://www.w3.org/1999/xlink" width="24" height="24" viewBox="0 0 24 24">
  <defs>
    <style>
      .cls-1 {
        fill: #22559a;
      }

      .cls-2 {
        clip-path: url(#clip-path);
      }
    </style>
    <clipPath id="clip-path">
      <rect id="Rectangle_36" data-name="Rectangle 36" class="cls-1" width="24" height="24"/>
    </clipPath>
  </defs>
  <g id="ic_bell_notification" data-name="ic_bell/notification" transform="translate(-152.25 -254.25)">
    <g id="Group_40" data-name="Group 40" class="cls-2" transform="translate(152.25 254.25)">
      <path id="Path_54" data-name="Path 54" class="cls-1" d="M175.159,271.7h-1.09v-8.727a8.728,8.728,0,0,0-17.455,0V271.7h-1.09a1.091,1.091,0,0,0,0,2.182h5.454a4.363,4.363,0,1,0,8.727,0h5.454a1.091,1.091,0,0,0,0-2.182Zm-9.818,4.363a2.184,2.184,0,0,1-2.182-2.181h4.364A2.184,2.184,0,0,1,165.341,276.068Zm6.546-4.363H158.8v-8.727a6.546,6.546,0,0,1,13.091,0Z" transform="translate(-153.341 -254.25)"/>
    </g>
  </g>
</svg>
