<svg xmlns="http://www.w3.org/2000/svg" width="16" height="16" viewBox="0 0 16 16">
  <defs>
    <style>
      .cls-1 {
        fill: #22559a;
      }
    </style>
  </defs>
  <path id="ic_search_small" data-name="ic_search/small" class="cls-1" d="M247.809,246.89l-3.345-3.345a7.053,7.053,0,1,0-.92.92l3.345,3.345a.65.65,0,0,0,.92-.92ZM233.3,239.046a5.745,5.745,0,1,1,5.745,5.745A5.752,5.752,0,0,1,233.3,239.046Z" transform="translate(-232 -232)"/>
</svg>
